X;Y;Z;Rx;Ry;Rz;Fc;Vx;Vy;Vz;Millis
45000000;45000000;0;0;0;45;-5;-5;0;5;0
45000045;45000000;5;5;0;45;5;-5;0;5;1000
45000090;45000000;10;10;0;45;7;-5;0;5;2000
45000136;45000000;15;15;0;45;1;-5;0;5;3000
45000181;45000000;20;20;0;45;3;-5;0;5;4000
45000226;45000000;25;25;0;45;6;-5;0;5;5000
45000271;45000000;30;30;0;45;3;-5;0;5;6000
45000317;45000000;35;35;0;45;1;-5;0;5;7000
45000362;45000000;40;40;0;45;5;-5;0;5;8000
45000407;45000000;45;45;0;45;3;-5;0;5;9000
45000452;45000000;50;50;0;45;-7;-5;0;5;10000
45000497;45000000;55;55;0;45;-2;-5;0;5;11000
45000543;45000000;60;60;0;45;4;-5;0;5;12000
45000588;45000000;65;65;0;45;-2;-5;0;5;13000
45000633;45000000;70;70;0;45;0;-5;0;5;14000
45000678;45000000;75;75;0;45;-5;-5;0;5;15000
45000724;45000000;80;80;0;45;-1;-5;0;5;16000
45000769;45000000;85;85;0;45;-4;-5;0;5;17000
45000814;45000000;90;90;0;45;2;-5;0;5;18000
45000859;45000000;95;95;0;45;6;-5;0;5;19000
45000904;45000000;100;100;0;45;-2;-5;0;5;20000
45000950;45000000;105;105;0;45;-3;-5;0;5;21000
45000995;45000000;110;110;0;45;-5;-5;0;5;22000
45001040;45000000;115;115;0;45;2;-5;0;5;23000
45001085;45000000;120;120;0;45;8;-5;0;5;24000
45001131;45000000;125;125;0;45;5;-5;0;5;25000
45001176;45000000;130;130;0;45;6;-5;0;5;26000
45001221;45000000;135;135;0;45;-3;-5;0;5;27000
45001266;45000000;140;140;0;45;-7;-5;0;5;28000
45001311;45000000;145;145;0;45;3;-5;0;5;29000
45001357;45000000;150;150;0;45;1;-5;0;5;30000
45001402;45000000;155;155;0;45;2;-5;0;5;31000
45001447;45000000;160;160;0;45;0;-5;0;5;32000
45001492;45000000;165;165;0;45;-2;-5;0;5;33000
45001537;45000000;170;170;0;45;4;-5;0;5;34000
45001583;45000000;175;175;0;45;-4;-5;0;5;35000
45001628;45000000;180;180;0;45;1;-5;0;5;36000
45001673;45000000;185;-175;0;45;-5;-5;0;5;37000
45001718;45000000;190;-170;0;45;1;-5;0;5;38000
45001764;45000000;195;-165;0;45;-7;-5;0;5;39000
45001809;45000000;200;-160;0;45;9;-5;0;5;40000
45001854;45000000;205;-155;0;45;3;-5;0;5;41000
45001899;45000000;210;-150;0;45;1;-5;0;5;42000
45001944;45000000;215;-145;0;45;-6;-5;0;5;43000
45001990;45000000;220;-140;0;45;3;-5;0;5;44000
45002035;45000000;225;-135;0;45;2;-5;0;5;45000
45002080;45000000;230;-130;0;45;-7;-5;0;5;46000
45002125;45000000;235;-125;0;45;4;-5;0;5;47000
45002171;45000000;240;-120;0;45;-4;-5;0;5;48000
45002216;45000000;245;-115;0;45;6;-5;0;5;49000
45002261;45000000;250;-110;0;45;-6;-5;0;5;50000
45002306;45000000;255;-105;0;45;-3;-5;0;5;51000
45002351;45000000;260;-100;0;45;-2;-5;0;5;52000
45002397;45000000;265;-95;0;45;0;-5;0;5;53000
45002442;45000000;270;-90;0;45;8;-5;0;5;54000
45002487;45000000;275;-85;0;45;1;-5;0;5;55000
45002532;45000000;280;-80;0;45;2;-5;0;5;56000
45002578;45000000;285;-75;0;45;2;-5;0;5;57000
45002623;45000000;290;-70;0;45;-3;-5;0;5;58000
45002668;45000000;295;-65;0;45;5;-5;0;5;59000
45002713;45000000;300;-60;0;45;-6;-5;0;5;60000
45002758;45000000;305;-55;0;45;8;-5;0;5;61000
45002804;45000000;310;-50;0;45;3;-5;0;5;62000
45002849;45000000;315;-45;0;45;-5;-5;0;5;63000
45002894;45000000;320;-40;0;45;6;-5;0;5;64000
45002939;45000000;325;-35;0;45;-6;-5;0;5;65000
45002985;45000000;330;-30;0;45;9;-5;0;5;66000
45003030;45000000;335;-25;0;45;-2;-5;0;5;67000
45003075;45000000;340;-20;0;45;-4;-5;0;5;68000
45003120;45000000;345;-15;0;45;-1;-5;0;5;69000
45003165;45000000;350;-10;0;45;1;-5;0;5;70000
45003211;45000000;355;-5;0;45;1;-5;0;5;71000
45003211;44999937;360;0;0;45;6;-5;0;5;72000
45003211;44999873;360;5;0;0;5;-5;0;5;73000
45003211;44999810;360;10;0;0;8;-5;0;5;74000
45003211;44999746;360;15;0;0;-1;-5;0;5;75000
45003211;44999683;360;20;0;0;5;-5;0;5;76000
45003211;44999620;360;25;0;0;9;-5;0;5;77000
45003211;44999556;360;30;0;0;5;-5;0;5;78000
45003211;44999493;360;35;0;0;1;-5;0;5;79000
45003211;44999429;360;40;0;0;3;-5;0;5;80000
45003211;44999366;360;45;0;0;2;-5;0;5;81000
45003211;44999302;360;50;0;0;0;-5;0;5;82000
45003211;44999239;360;55;0;0;9;-5;0;5;83000
45003211;44999176;360;60;0;0;-2;-5;0;5;84000
45003211;44999112;360;65;0;0;3;-5;0;5;85000
45003211;44999049;360;70;0;0;-2;-5;0;5;86000
45003211;44998985;360;75;0;0;3;-5;0;5;87000
45003211;44998922;360;80;0;0;-6;-5;0;5;88000
45003211;44998859;360;85;0;0;-4;-5;0;5;89000
45003211;44998795;360;90;0;0;5;-5;0;5;90000
45003211;44998732;360;95;0;0;8;-5;0;5;91000
45003211;44998668;360;100;0;0;7;-5;0;5;92000
45003211;44998605;360;105;0;0;8;-5;0;5;93000
45003211;44998542;360;110;0;0;0;-5;0;5;94000
45003211;44998478;360;115;0;0;2;-5;0;5;95000
45003211;44998415;360;120;0;0;-2;-5;0;5;96000
45003211;44998351;360;125;0;0;-5;-5;0;5;97000
45003211;44998288;360;130;0;0;1;-5;0;5;98000
45003211;44998224;360;135;0;0;6;-5;0;5;99000
45003211;44998161;360;140;0;0;-7;-5;0;5;100000
45003211;44998098;360;145;0;0;-6;-5;0;5;101000
45003211;44998034;360;150;0;0;-7;-5;0;5;102000
45003211;44997971;360;155;0;0;9;-5;0;5;103000
45003211;44997907;360;160;0;0;0;-5;0;5;104000
45003211;44997844;360;165;0;0;5;-5;0;5;105000
45003211;44997781;360;170;0;0;0;-5;0;5;106000
45003211;44997717;360;175;0;0;9;-5;0;5;107000
45003211;44997654;360;180;0;0;9;-5;0;5;108000
45003211;44997590;360;-175;0;0;2;-5;0;5;109000
45003211;44997527;360;-170;0;0;-4;-5;0;5;110000
45003211;44997464;360;-165;0;0;2;-5;0;5;111000
45003211;44997400;360;-160;0;0;-4;-5;0;5;112000
45003211;44997337;360;-155;0;0;0;-5;0;5;113000
45003211;44997273;360;-150;0;0;7;-5;0;5;114000
45003211;44997210;360;-145;0;0;-7;-5;0;5;115000
45003211;44997146;360;-140;0;0;-1;-5;0;5;116000
45003211;44997083;360;-135;0;0;-1;-5;0;5;117000
45003211;44997020;360;-130;0;0;-6;-5;0;5;118000
45003211;44996956;360;-125;0;0;-3;-5;0;5;119000
45003211;44996893;360;-120;0;0;0;-5;0;5;120000
45003211;44996829;360;-115;0;0;-7;-5;0;5;121000
45003211;44996766;360;-110;0;0;-4;-5;0;5;122000
45003211;44996703;360;-105;0;0;-5;-5;0;5;123000
45003211;44996639;360;-100;0;0;5;-5;0;5;124000
45003211;44996576;360;-95;0;0;6;-5;0;5;125000
45003211;44996512;360;-90;0;0;3;-5;0;5;126000
45003211;44996449;360;-85;0;0;-7;-5;0;5;127000
45003211;44996386;360;-80;0;0;-7;-5;0;5;128000
45003211;44996322;360;-75;0;0;2;-5;0;5;129000
45003211;44996259;360;-70;0;0;-3;-5;0;5;130000
45003211;44996195;360;-65;0;0;-1;-5;0;5;131000
45003211;44996132;360;-60;0;0;-6;-5;0;5;132000
45003211;44996068;360;-55;0;0;2;-5;0;5;133000
45003211;44996005;360;-50;0;0;4;-5;0;5;134000
45003211;44995942;360;-45;0;0;2;-5;0;5;135000
45003211;44995878;360;-40;0;0;-1;-5;0;5;136000
45003211;44995815;360;-35;0;0;-6;-5;0;5;137000
45003211;44995751;360;-30;0;0;5;-5;0;5;138000
45003211;44995688;360;-25;0;0;-5;-5;0;5;139000
45003211;44995625;360;-20;0;0;-4;-5;0;5;140000
45003211;44995561;360;-15;0;0;0;-5;0;5;141000
45003211;44995498;360;-10;0;0;-3;-5;0;5;142000
45003211;44995434;360;-5;0;0;4;-5;0;5;143000
45003211;44995434;360;0;0;0;4;-5;0;5;144000
45003211;44995434;365;5;0;0;-2;-5;0;5;145000
45003211;44995434;370;10;0;0;7;-5;0;5;146000
45003211;44995434;375;15;0;0;-4;-5;0;5;147000
45003211;44995434;380;20;0;0;2;-5;0;5;148000
45003211;44995434;385;25;0;0;-2;-5;0;5;149000
45003211;44995434;390;30;0;0;2;-5;0;5;150000
45003211;44995434;395;35;0;0;4;-5;0;5;151000
45003211;44995434;400;40;0;0;0;-5;0;5;152000
45003211;44995434;405;45;0;0;-4;-5;0;5;153000
45003211;44995434;410;50;0;0;-6;-5;0;5;154000
45003211;44995434;415;55;0;0;-4;-5;0;5;155000
45003211;44995434;420;60;0;0;9;-5;0;5;156000
45003211;44995434;425;65;0;0;-3;-5;0;5;157000
45003211;44995434;430;70;0;0;6;-5;0;5;158000
45003211;44995434;435;75;0;0;-4;-5;0;5;159000
45003211;44995434;440;80;0;0;9;-5;0;5;160000
45003211;44995434;445;85;0;0;-4;-5;0;5;161000
45003211;44995434;450;90;0;0;3;-5;0;5;162000
45003211;44995434;455;95;0;0;-7;-5;0;5;163000
45003211;44995434;460;100;0;0;-7;-5;0;5;164000
45003211;44995434;465;105;0;0;4;-5;0;5;165000
45003211;44995434;470;110;0;0;6;-5;0;5;166000
45003211;44995434;475;115;0;0;-4;-5;0;5;167000
45003211;44995434;480;120;0;0;-7;-5;0;5;168000
45003211;44995434;485;125;0;0;-6;-5;0;5;169000
45003211;44995434;490;130;0;0;-6;-5;0;5;170000
45003211;44995434;495;135;0;0;-1;-5;0;5;171000
45003211;44995434;500;140;0;0;-2;-5;0;5;172000
45003211;44995434;505;145;0;0;9;-5;0;5;173000
45003211;44995434;510;150;0;0;0;-5;0;5;174000
45003211;44995434;515;155;0;0;1;-5;0;5;175000
45003211;44995434;520;160;0;0;-5;-5;0;5;176000
45003211;44995434;525;165;0;0;3;-5;0;5;177000
45003211;44995434;530;170;0;0;6;-5;0;5;178000
45003211;44995434;535;175;0;0;8;-5;0;5;179000
45003211;44995434;540;180;0;0;-3;-5;0;5;180000
45003211;44995434;545;-175;0;0;4;-5;0;5;181000
45003211;44995434;550;-170;0;0;2;-5;0;5;182000
45003211;44995434;555;-165;0;0;7;-5;0;5;183000
45003211;44995434;560;-160;0;0;-6;-5;0;5;184000
45003211;44995434;565;-155;0;0;-7;-5;0;5;185000
45003211;44995434;570;-150;0;0;6;-5;0;5;186000
45003211;44995434;575;-145;0;0;-7;-5;0;5;187000
45003211;44995434;580;-140;0;0;-5;-5;0;5;188000
45003211;44995434;585;-135;0;0;-2;-5;0;5;189000
45003211;44995434;590;-130;0;0;-3;-5;0;5;190000
45003211;44995434;595;-125;0;0;9;-5;0;5;191000
45003211;44995434;600;-120;0;0;6;-5;0;5;192000
45003211;44995434;605;-115;0;0;5;-5;0;5;193000
45003211;44995434;610;-110;0;0;9;-5;0;5;194000
45003211;44995434;615;-105;0;0;2;-5;0;5;195000
45003211;44995434;620;-100;0;0;0;-5;0;5;196000
45003211;44995434;625;-95;0;0;-3;-5;0;5;197000
45003211;44995434;630;-90;0;0;8;-5;0;5;198000
45003211;44995434;635;-85;0;0;-5;-5;0;5;199000
45003211;44995434;640;-80;0;0;-1;-5;0;5;200000
45003211;44995434;645;-75;0;0;0;-5;0;5;201000
45003211;44995434;650;-70;0;0;-1;-5;0;5;202000
45003211;44995434;655;-65;0;0;9;-5;0;5;203000
45003211;44995434;660;-60;0;0;0;-5;0;5;204000
45003211;44995434;665;-55;0;0;2;-5;0;5;205000
45003211;44995434;670;-50;0;0;3;-5;0;5;206000
45003211;44995434;675;-45;0;0;8;-5;0;5;207000
45003211;44995434;680;-40;0;0;6;-5;0;5;208000
45003211;44995434;685;-35;0;0;-2;-5;0;5;209000
45003211;44995434;690;-30;0;0;7;-5;0;5;210000
45003211;44995434;695;-25;0;0;4;-5;0;5;211000
45003211;44995434;700;-20;0;0;-7;-5;0;5;212000
45003211;44995434;705;-15;0;0;7;-5;0;5;213000
45003211;44995434;710;-10;0;0;0;-5;0;5;214000
45003211;44995434;715;-5;0;0;-6;-5;0;5;215000
